"JBLAB","Fixative","Q_ratio","Q_type","Patient","Material"
"JBLAB-4004","UMFIX",0.75,"Q305/Q41","220714CB","Biopsy"
"JBLAB-4004","UMFIX",1.06,"Q129/Q41","220714CB","Biopsy"
"JBLAB-4006","NBF",1,"Q129/Q41","220714CB","Biopsy"
"JBLAB-4006","NBF",0.37,"Q305/Q41","220714CB","Biopsy"
"JBLAB-4007","NBF",0.92,"Q129/Q41","220714CB","Surgery"
"JBLAB-4007","NBF",0.43,"Q305/Q41","220714CB","Surgery"
"JBLAB-4008","UMFIX",0.71,"Q305/Q41","220714CB","Surgery"
"JBLAB-4008","UMFIX",1.01,"Q129/Q41","220714CB","Surgery"
"JBLAB-4013","NBF",0.31,"Q305/Q41","300614NW","Surgery"
"JBLAB-4013","NBF",0.75,"Q129/Q41","300614NW","Surgery"
"JBLAB-4014","UMFIX",0.8,"Q129/Q41","300614NW","Surgery"
"JBLAB-4014","UMFIX",0.66,"Q305/Q41","300614NW","Surgery"
"JBLAB-4019","UMFIX",0.6,"Q129/Q41","060514AR","Surgery"
"JBLAB-4019","UMFIX",0.08,"Q305/Q41","060514AR","Surgery"
"JBLAB-4020","NBF",0.65,"Q129/Q41","060514AR","Surgery"
"JBLAB-4020","NBF",0.05,"Q305/Q41","060514AR","Surgery"
"JBLAB-4023","UMFIX",0.08,"Q305/Q41","060514AR","Biopsy"
"JBLAB-4023","UMFIX",0.6,"Q129/Q41","060514AR","Biopsy"
"JBLAB-4024","NBF",0.56,"Q129/Q41","060514AR","Biopsy"
"JBLAB-4024","NBF",0.06,"Q305/Q41","060514AR","Biopsy"
"JBLAB-4025","UMFIX",0.36,"Q305/Q41","040614JG","Surgery"
"JBLAB-4025","UMFIX",0.85,"Q129/Q41","040614JG","Surgery"
"JBLAB-4026","NBF",0.17,"Q305/Q41","040614JG","Surgery"
"JBLAB-4026","NBF",0.63,"Q129/Q41","040614JG","Surgery"
"JBLAB-4029","UMFIX",0.36,"Q305/Q41","040614JG","Biopsy"
"JBLAB-4029","UMFIX",0.79,"Q129/Q41","040614JG","Biopsy"
"JBLAB-4030","NBF",0.09,"Q305/Q41","040614JG","Biopsy"
"JBLAB-4030","NBF",0.57,"Q129/Q41","040614JG","Biopsy"
"JBLAB-4033","SF",1.02,"Q305/Q41","060514AR","Surgery"
"JBLAB-4033","SF",1.22,"Q129/Q41","060514AR","Surgery"
"JBLAB-4035","SF",1.06,"Q129/Q41","040614JG","Surgery"
"JBLAB-4035","SF",1.15,"Q305/Q41","040614JG","Surgery"
"JBLAB-4037","SF",1.29,"Q129/Q41","300614NW","Surgery"
"JBLAB-4037","SF",1.24,"Q305/Q41","300614NW","Surgery"
"JBLAB-4039","SF",1.18,"Q305/Q41","220714CB","Surgery"
"JBLAB-4039","SF",1.62,"Q129/Q41","220714CB","Surgery"
"JBLAB-4053","UMFIX",0.87,"Q129/Q41","261113LJ","Surgery"
"JBLAB-4053","UMFIX",0.32,"Q305/Q41","261113LJ","Surgery"
"JBLAB-4054","NBF",0.53,"Q129/Q41","261113LJ","Surgery"
"JBLAB-4054","NBF",0.09,"Q305/Q41","261113LJ","Surgery"
"JBLAB-4057","UMFIX",0.71,"Q129/Q41","261113LJ","Biopsy"
"JBLAB-4057","UMFIX",0.44,"Q305/Q41","261113LJ","Biopsy"
"JBLAB-4058","NBF",0.58,"Q129/Q41","261113LJ","Biopsy"
"JBLAB-4058","NBF",0.24,"Q305/Q41","261113LJ","Biopsy"
"JBLAB-4059","UMFIX",0.47,"Q305/Q41","231014EP","Surgery"
"JBLAB-4059","UMFIX",0.78,"Q129/Q41","231014EP","Surgery"
"JBLAB-4060","NBF",0.78,"Q129/Q41","231014EP","Surgery"
"JBLAB-4060","NBF",0.31,"Q305/Q41","231014EP","Surgery"
"JBLAB-4063","UMFIX",0.49,"Q305/Q41","231014EP","Biopsy"
"JBLAB-4063","UMFIX",0.88,"Q129/Q41","231014EP","Biopsy"
"JBLAB-4064","NBF",0.72,"Q129/Q41","231014EP","Biopsy"
"JBLAB-4064","NBF",0.28,"Q305/Q41","231014EP","Biopsy"
"JBLAB-4065","SF",0.88,"Q305/Q41","060514AR","Biopsy"
"JBLAB-4065","SF",1.1,"Q129/Q41","060514AR","Biopsy"
"JBLAB-4066","SF",1.03,"Q129/Q41","040614JG","Biopsy"
"JBLAB-4066","SF",0.99,"Q305/Q41","040614JG","Biopsy"
"JBLAB-4067","SF",0.99,"Q129/Q41","220714CB","Biopsy"
"JBLAB-4067","SF",0.99,"Q305/Q41","220714CB","Biopsy"
"JBLAB-4068","SF",1.21,"Q129/Q41","300614NW","Biopsy"
"JBLAB-4068","SF",1.02,"Q305/Q41","300614NW","Biopsy"
"JBLAB-4069","SF",1.03,"Q129/Q41","231014EP","Biopsy"
"JBLAB-4069","SF",0.83,"Q305/Q41","231014EP","Biopsy"
"JBLAB-4070","SF",1.24,"Q129/Q41","231014EP","Surgery"
"JBLAB-4070","SF",1.01,"Q305/Q41","231014EP","Surgery"
"JBLAB-4072","SF",1.07,"Q129/Q41","261113LJ","Biopsy"
"JBLAB-4072","SF",0.98,"Q305/Q41","261113LJ","Biopsy"
"JBLAB-4073","SF",0.89,"Q305/Q41","261113LJ","Surgery"
"JBLAB-4073","SF",1.08,"Q129/Q41","261113LJ","Surgery"
"JBLAB-4085","UMFIX",0.16,"Q305/Q41","271114SR","Surgery"
"JBLAB-4085","UMFIX",0.76,"Q129/Q41","271114SR","Surgery"
"JBLAB-4087","NBF",0.67,"Q129/Q41","271114SR","Surgery"
"JBLAB-4087","NBF",0.17,"Q305/Q41","271114SR","Surgery"
"JBLAB-4090","UMFIX",0.93,"Q129/Q41","271114SR","Biopsy"
"JBLAB-4090","UMFIX",0.27,"Q305/Q41","271114SR","Biopsy"
"JBLAB-4091","NBF",0.58,"Q129/Q41","271114SR","Biopsy"
"JBLAB-4091","NBF",0.16,"Q305/Q41","271114SR","Biopsy"
"JBLAB-4092","UMFIX",0.23,"Q305/Q41","271114BR","Surgery"
"JBLAB-4092","UMFIX",0.73,"Q129/Q41","271114BR","Surgery"
"JBLAB-4093","NBF",0.71,"Q129/Q41","271114BR","Surgery"
"JBLAB-4093","NBF",0.23,"Q305/Q41","271114BR","Surgery"
"JBLAB-4097","UMFIX",0.25,"Q305/Q41","271114BR","Biopsy"
"JBLAB-4097","UMFIX",0.96,"Q129/Q41","271114BR","Biopsy"
"JBLAB-4098","NBF",0.59,"Q129/Q41","271114BR","Biopsy"
"JBLAB-4098","NBF",0.18,"Q305/Q41","271114BR","Biopsy"
"JBLAB-4099","UMFIX",0.6,"Q305/Q41","061114JL","Surgery"
"JBLAB-4099","UMFIX",1.01,"Q129/Q41","061114JL","Surgery"
"JBLAB-4701","NBF",0.67,"Q129/Q41","061114JL","Surgery"
"JBLAB-4701","NBF",0.17,"Q305/Q41","061114JL","Surgery"
"JBLAB-4704","UMFIX",1.04,"Q129/Q41","061114JL","Biopsy"
"JBLAB-4704","UMFIX",0.5,"Q305/Q41","061114JL","Biopsy"
"JBLAB-4705","NBF",0.63,"Q129/Q41","061114JL","Biopsy"
"JBLAB-4705","NBF",0.2,"Q305/Q41","061114JL","Biopsy"
"JBLAB-4706","SF",0.93,"Q305/Q41","271114SR","Biopsy"
"JBLAB-4706","SF",1.5,"Q129/Q41","271114SR","Biopsy"
"JBLAB-4707","SF",1.33,"Q129/Q41","271114SR","Surgery"
"JBLAB-4707","SF",1.15,"Q305/Q41","271114SR","Surgery"
"JBLAB-4709","SF",1.04,"Q305/Q41","271114BR","Biopsy"
"JBLAB-4709","SF",1.19,"Q129/Q41","271114BR","Biopsy"
"JBLAB-4710","SF",1.07,"Q305/Q41","271114BR","Surgery"
"JBLAB-4710","SF",1.62,"Q129/Q41","271114BR","Surgery"
"JBLAB-4712","SF",1.03,"Q305/Q41","061114JL","Biopsy"
"JBLAB-4712","SF",1.39,"Q129/Q41","061114JL","Biopsy"
"JBLAB-4713","SF",1.14,"Q305/Q41","061114JL","Surgery"
"JBLAB-4713","SF",1.96,"Q129/Q41","061114JL","Surgery"
"JBLAB-4715","UMFIX",0.57,"Q305/Q41","140115JC","Surgery"
"JBLAB-4715","UMFIX",1.01,"Q129/Q41","140115JC","Surgery"
"JBLAB-4717","UMFIX",0.4,"Q305/Q41","140115JC","Biopsy"
"JBLAB-4717","UMFIX",0.77,"Q129/Q41","140115JC","Biopsy"
"JBLAB-4718","NBF",0.8,"Q129/Q41","140115JC","Surgery"
"JBLAB-4718","NBF",0.33,"Q305/Q41","140115JC","Surgery"
"JBLAB-4720","NBF",0.2,"Q305/Q41","140115JC","Biopsy"
"JBLAB-4720","NBF",0.59,"Q129/Q41","140115JC","Biopsy"
"JBLAB-4721","SF",1.17,"Q129/Q41","140115JC","Biopsy"
"JBLAB-4721","SF",1.07,"Q305/Q41","140115JC","Biopsy"
"JBLAB-4722","SF",1.26,"Q129/Q41","140115JC","Surgery"
"JBLAB-4722","SF",1.18,"Q305/Q41","140115JC","Surgery"
"JBLAB-4733","UMFIX",0.66,"Q305/Q41","050215FB","Surgery"
"JBLAB-4733","UMFIX",0.78,"Q129/Q41","050215FB","Surgery"
"JBLAB-4735","UMFIX",0.76,"Q129/Q41","050215FB","Biopsy"
"JBLAB-4735","UMFIX",0.52,"Q305/Q41","050215FB","Biopsy"
"JBLAB-4736","NBF",0.24,"Q305/Q41","050215FB","Surgery"
"JBLAB-4736","NBF",0.55,"Q129/Q41","050215FB","Surgery"
"JBLAB-4738","NBF",0.17,"Q305/Q41","050215FB","Biopsy"
"JBLAB-4738","NBF",0.61,"Q129/Q41","050215FB","Biopsy"
"JBLAB-4739","SF",1.13,"Q305/Q41","050215FB","Biopsy"
"JBLAB-4739","SF",0.97,"Q129/Q41","050215FB","Biopsy"
"JBLAB-4740","SF",1.01,"Q305/Q41","050215FB","Surgery"
"JBLAB-4740","SF",1.09,"Q129/Q41","050215FB","Surgery"
